#k_krahwix
##d_gnolltauz
###c_taukyr
488 = {

    # Misc
    culture = damerian
    religion = cult_of_the_dame
	holding = tribal_holding

    # History
	1000.1.1 = {
		special_building_slot = taukyr_mines_01
	}
}
###c_toesah
485 = {

    # Misc
    culture = damerian
    religion = cult_of_the_dame
	holding = tribal_holding

    # History
}
###c_toreeb
489 = {

    # Misc
    culture = damerian
    religion = cult_of_the_dame
	holding = tribal_holding

    # History
}
##d_krahilzin
###c_krahilzin
5477 = {

    # Misc
    culture = damerian
    religion = cult_of_the_dame
	holding = tribal_holding

    # History
}
###c_ronxortos
5532 = {

    # Misc
    culture = damerian
    religion = cult_of_the_dame
	holding = tribal_holding

    # History
}
###c_ronnutg_rax
5472 = {

    # Misc
    culture = damerian
    religion = cult_of_the_dame
	holding = tribal_holding

    # History
}
##d_saymas
###c_saymas
5475 = {

    # Misc
    culture = damerian
    religion = cult_of_the_dame
	holding = tribal_holding

    # History
}
###c_boozhur
5476 = {

    # Misc
    culture = damerian
    religion = cult_of_the_dame
	holding = tribal_holding

    # History
}
###c_romaton
5533 = {

    # Misc
    culture = damerian
    religion = cult_of_the_dame
	holding = tribal_holding

    # History
}
###c_bagunaz
5465 = {

    # Misc
    culture = damerian
    religion = cult_of_the_dame
	holding = tribal_holding

    # History
}
##d_koggraffa
###c_koggraffa
5462 = {

    # Misc
    culture = damerian
    religion = cult_of_the_dame
	holding = tribal_holding

    # History
}
###c_ohzenteer
5463 = {

    # Misc
    culture = damerian
    religion = cult_of_the_dame
	holding = tribal_holding

    # History
}
###c_iwixumar
5464 = {

    # Misc
    culture = damerian
    religion = cult_of_the_dame
	holding = tribal_holding

    # History
}
###c_graffirkor
5461 = {

    # Misc
    culture = damerian
    religion = cult_of_the_dame
	holding = tribal_holding

    # History
}
6714 = {

    # Misc
    culture = damerian
    religion = cult_of_the_dame
	holding = none

    # History
}
6715 = {

    # Misc
    culture = damerian
    religion = cult_of_the_dame
	holding = none

    # History
}